<?xml version="1.0" encoding="UTF-8"?>
<svg width="201px" height="106px" viewBox="0 0 201 106" version="1.1" xmlns="http://www.w3.org/2000/svg" xmlns:xlink="http://www.w3.org/1999/xlink">
    <!-- Generator: Sketch 54.1 (76490) - https://sketchapp.com -->
    <title>undraw_community_8nwl</title>
    <desc>Created with Sketch.</desc>
    <defs>
        <linearGradient x1="49.9980214%" y1="99.9956618%" x2="49.9980214%" y2="0.000918730404%" id="linearGradient-1">
            <stop stop-color="#808080" stop-opacity="0.25" offset="0%"></stop>
            <stop stop-color="#808080" stop-opacity="0.12" offset="54%"></stop>
            <stop stop-color="#808080" stop-opacity="0.1" offset="100%"></stop>
        </linearGradient>
        <linearGradient x1="45%" y1="82.5%" x2="45%" y2="17.5%" id="linearGradient-2">
            <stop stop-color="#808080" stop-opacity="0.25" offset="0%"></stop>
            <stop stop-color="#808080" stop-opacity="0.12" offset="54%"></stop>
            <stop stop-color="#808080" stop-opacity="0.1" offset="100%"></stop>
        </linearGradient>
        <linearGradient x1="48%" y1="84%" x2="48%" y2="16%" id="linearGradient-3">
            <stop stop-color="#808080" stop-opacity="0.25" offset="0%"></stop>
            <stop stop-color="#808080" stop-opacity="0.12" offset="54%"></stop>
            <stop stop-color="#808080" stop-opacity="0.1" offset="100%"></stop>
        </linearGradient>
        <linearGradient x1="21.4102483%" y1="81.26304%" x2="21.4102483%" y2="81.256255%" id="linearGradient-4">
            <stop stop-color="#808080" stop-opacity="0.25" offset="0%"></stop>
            <stop stop-color="#808080" stop-opacity="0.12" offset="54%"></stop>
            <stop stop-color="#808080" stop-opacity="0.1" offset="100%"></stop>
        </linearGradient>
        <linearGradient x1="21.4120485%" y1="81.3156243%" x2="21.4120485%" y2="81.288484%" id="linearGradient-5">
            <stop stop-color="#808080" stop-opacity="0.25" offset="0%"></stop>
            <stop stop-color="#808080" stop-opacity="0.12" offset="54%"></stop>
            <stop stop-color="#808080" stop-opacity="0.1" offset="100%"></stop>
        </linearGradient>
        <linearGradient x1="21.4111484%" y1="81.288484%" x2="21.4111484%" y2="81.26304%" id="linearGradient-6">
            <stop stop-color="#808080" stop-opacity="0.25" offset="0%"></stop>
            <stop stop-color="#808080" stop-opacity="0.12" offset="54%"></stop>
            <stop stop-color="#808080" stop-opacity="0.1" offset="100%"></stop>
        </linearGradient>
    </defs>
    <g id="JOGL---Platform-MVP" stroke="none" stroke-width="1" fill="none" fill-rule="evenodd">
        <g id="1_JOGL_Landing_Page" transform="translate(-747.000000, -908.000000)">
            <g id="UI/Card/Image-Header" transform="translate(723.587189, 864.000000)">
                <g id="undraw_community_8nwl" transform="translate(15.988612, 16.000000)">
                    <path d="M16.5405727,42.588256 C16.8642537,44.6380669 17.6914383,46.6178755 17.6986312,48.6910205 C17.7256047,55.4650892 9.49152067,59.6257387 8.23096315,66.2813419 C7.48290049,70.2301896 9.4213898,74.2651939 12.1546957,77.2106753 C14.8880016,80.1561566 18.3729666,82.2795597 21.5828028,84.7027162 C30.4638539,91.4194645 37.3094054,100.458483 41.3615077,110.818959 C42.1725083,112.901078 42.8702206,115.047816 43.1003937,117.26994 C43.2676289,118.885377 43.1885069,120.538509 43.5679329,122.116253 C45.0694529,128.378766 52.6831484,130.809102 59.1208031,131.214757 C69.489155,131.857217 79.8675399,130.127179 89.4640949,126.156642 C91.621968,125.259177 93.8499719,124.239656 96.166089,124.492741 C98.0182634,124.695568 99.6708345,125.695345 101.296432,126.605375 C106.083752,129.287206 111.178597,131.380954 116.469876,132.840964 C119.400987,133.648683 122.477755,134.262549 125.471804,133.738429 C134.462941,132.155301 139.240832,121.27084 148.062936,118.890762 C154.166121,117.244811 160.51746,120.12029 165.991265,123.277573 C171.46507,126.434856 177.115101,130.071386 183.434072,130.080361 C191.864163,130.09113 198.794532,123.722716 204.512896,117.540974 C205.712314,116.243239 206.931512,114.886272 207.503348,113.215191 C208.663205,109.822772 206.784057,106.012134 204.005796,103.732572 C201.227534,101.45301 197.724587,100.322204 194.378085,99.0190839 C188.705881,96.8101693 183.292786,93.988507 178.235397,90.6044485 C174.962622,88.414633 171.792347,85.9376286 169.553554,82.7067532 C167.627652,79.9210207 166.471392,76.6919403 165.180264,73.5615811 C162.349854,66.7067405 158.347,59.7406143 151.662988,56.5240983 C146.205367,53.8963197 139.866615,54.1906884 133.808386,54.1206861 C124.881985,54.0219649 115.729007,52.9503912 107.815007,48.8292302 C101.130995,45.3488595 95.6410066,39.8545764 88.8580922,36.5644684 C78.0687269,31.3358351 65.734684,32.3607406 54.1091429,32.5581829 C48.5220498,32.6533143 41.8811955,33.2097428 36.5152844,31.3825033 C32.5465962,30.0309204 30.5038097,27.268522 25.9453028,28.3813791 C19.7108479,29.8980956 15.5443546,36.2647149 16.5405727,42.588256 Z" id="Path" fill="#2987CD" fill-rule="nonzero" opacity="0.1"></path>
                    <path d="M181.750055,91.7013508 C181.467911,90.7690294 181.497565,89.7703867 181.834536,88.8563748 C182.373781,87.4643815 183.687739,86.4598503 184.149692,85.0373623 C185.008888,82.3950863 182.693732,79.9214281 181.273722,77.5266973 C179.971141,75.3048277 179.380916,72.738434 179.582293,70.1720935 C179.803383,67.4168078 180.933998,64.7817071 181.020278,62.0192461 C181.097569,59.4451348 180.261741,56.9409819 179.436697,54.501406 C178.755452,52.4851682 178.061624,50.445611 176.909439,48.6553928 C174.730892,45.2704813 170.860916,43.1430276 166.881293,42.7914416 C165.002925,42.6246177 163.1659,43.2345117 161.319887,42.9959355 C158.756679,42.6658752 156.333675,42.0021671 153.720138,41.919652 C151.237817,41.846106 148.493064,42.160022 146.801634,43.9753535 C145.509245,45.365553 145.095825,47.3728217 143.913082,48.8580929 C142.234235,50.9658147 139.298949,51.6887185 137.442151,53.6403792 C135.8099,55.3952578 135.227007,57.8795914 135.9089,60.1752137 C136.16594,61.0075396 136.58655,61.7806699 136.859767,62.6076144 C138.008358,66.0624844 136.500271,69.7577244 135.588948,73.280759 C135.48629,73.5686108 135.467591,73.8796254 135.535024,74.1776619 C135.678822,74.6081753 136.131788,74.8341948 136.507461,75.0889152 C137.736938,75.9248287 138.364259,77.4388008 138.48469,78.9186906 C138.605121,80.3985804 138.261802,81.8730888 137.923876,83.3188963 C137.062883,86.9944044 135.986192,90.9318081 133.147969,93.3767655 C132.632603,92.150256 132.023249,90.9652243 131.325324,89.8322052 C129.588957,87.0231053 128.303758,83.5538848 128.282189,80.2335503 C128.280929,80.2234243 128.280929,80.2131816 128.282189,80.2030556 C128.282189,80.023675 128.291176,79.8442944 128.301961,79.6649139 C128.526646,75.747242 130.223468,71.9676931 130.185721,68.0679593 C130.185721,67.7522495 130.176733,67.4359417 130.158759,67.119036 C129.937669,63.7807634 128.330721,60.6936236 126.488303,57.8988742 C125.11323,55.812678 123.563801,53.7982341 121.579382,52.2788806 C118.511083,49.9487268 114.612347,48.9370203 110.781915,48.4024662 C106.951483,47.8679121 103.466168,47.3656465 99.6051787,47.1073384 C95.4529979,46.8292985 90.8838015,46.6732374 87.6016014,49.2240293 C83.3217994,52.5497452 83.084532,58.9733638 79.8221042,63.2964358 C77.8808248,65.8687534 74.7891577,67.8562902 73.7663911,70.7783999 C73.4897195,70.0613238 73.2591736,69.3273623 73.0761584,68.5809878 C73.0653735,68.5307612 73.0545887,68.4823284 73.0438038,68.4321019 C74.2772773,64.9062304 74.5642025,61.119511 73.8760374,57.4486289 C73.9572308,56.8541037 73.9986646,56.2548428 74.0000636,55.6548231 C74.0201457,55.00186 73.9493695,54.3492731 73.7897583,53.715719 C73.3278057,51.9685522 72.0533918,50.5711774 70.8221174,49.2455549 C70.3738539,48.7394632 69.887086,48.2686836 69.3661579,47.8374174 C62.711071,39.7908712 51.1944196,37.7408541 42.1620443,42.9949598 C33.129669,48.2490654 29.2416557,59.2599297 32.977955,69.0043259 C32.8197767,70.2277015 32.3452417,71.4169947 31.4734635,72.2798153 C31.0762202,72.6726588 30.5621407,73.1641616 30.6484198,73.6664272 C30.6216513,73.8094583 30.6418229,73.9572911 30.7059392,74.0879716 C30.7942527,74.2445152 30.9172077,74.3788757 31.0654353,74.4808151 C32.3229401,75.439846 33.8890318,75.9057135 35.467466,75.7902933 C36.7993923,79.6968408 39.4106186,83.0420319 42.8802772,85.2867013 C42.8802772,85.4062883 42.876083,85.5222878 42.8676948,85.6346996 C42.8676948,85.833812 42.8515175,86.0311307 42.8425301,86.2320369 C42.8425301,86.2768821 42.8425301,86.3217272 42.8425301,86.3665724 C42.8425301,86.3504281 42.8425301,86.33249 42.8425301,86.314552 C42.8425301,86.2966139 36.5837016,94.4566366 30.7994082,94.7597897 C27.711336,94.9212323 25.0169122,97.0002532 22.9749739,99.3770459 C20.52321,102.229197 19.0097311,105.508274 18.8803125,106.41594 C18.6412475,108.080592 16.9731853,116.170656 16.9731853,116.170656 L65.0270391,116.170656 C64.4590351,119.083797 63.6933082,122.795181 63.6933082,122.795181 L141.486483,122.795181 C141.306735,120.299997 141.107215,117.993163 140.922074,116.039708 L150.702168,116.039708 L150.691383,116.098904 L195.808153,116.098904 L198.669742,111.813502 C197.959737,99.3268193 190.579281,92.4619245 181.750055,91.7013508 Z M69.4254748,77.7527169 C70.4404387,78.2976983 71.5307924,78.6894231 72.6609403,78.915103 C73.1516526,79.0155562 73.6998843,79.0783394 74.1186973,78.8038871 C74.396276,78.5946574 74.6017051,78.3043846 74.7064736,77.973355 L74.7280434,78.0271692 C75.9413429,81.076639 77.0647685,84.2229744 77.2822637,87.4984638 C77.302036,87.8069984 77.3146183,88.115533 77.3164158,88.4258614 C77.3212823,90.2942977 76.9349601,92.1431423 76.1822054,93.8539178 C72.1182663,91.7211327 68.199109,89.324231 64.4500477,86.6786946 L64.1966029,86.5710662 C64.1966029,86.5907981 64.2846795,86.8150238 64.3889333,87.1935168 C64.4140981,87.2850009 64.4410603,87.3854541 64.4680225,87.4930824 C64.2109827,86.6643441 63.9773102,85.8176678 63.7723974,84.9548472 C63.7490301,84.8526003 63.7256629,84.7503533 63.7022956,84.6481064 C66.1500745,82.8552265 68.1160558,80.4865768 69.4254748,77.7527169 Z" id="Shape" fill="url(#linearGradient-1)" fill-rule="nonzero"></path>
                    <path d="M42.989461,86.5483266 L42.989461,86.367336 L42.989461,86.5483266 Z" id="Path" fill="url(#linearGradient-2)" fill-rule="nonzero"></path>
                    <path d="M42.989461,86.2740562 L42.989461,86.0847122 L42.989461,86.2740562 Z" id="Path" fill="url(#linearGradient-3)" fill-rule="nonzero"></path>
                    <g id="Group" transform="translate(0.000000, 0.278447)"></g>
                    <g id="Group" transform="translate(0.000000, 0.278447)"></g>
                    <g id="Group" transform="translate(0.000000, 0.278447)"></g>
                    <path d="M153.134181,42.6121892 C150.693,42.5385191 147.991354,42.8493713 146.32977,44.6390176 C145.057985,46.0082048 144.652019,47.9883155 143.488012,49.4527349 C141.837206,51.5316715 138.950541,52.2432176 137.1219,54.1676264 C135.516049,55.8978562 134.942416,58.3474434 135.613002,60.6110719 C135.866281,61.430428 136.279432,62.1940823 136.548878,63.008048 C137.678755,66.4220319 136.203987,70.0570264 135.291463,73.5303058 C135.189678,73.8151297 135.1716,74.1231612 135.23937,74.4179417 C135.379482,74.8419944 135.826763,75.0648018 136.195006,75.3163585 C137.40392,76.1411051 138.02185,77.6324771 138.131425,79.0897091 C138.240999,80.5469412 137.912275,82.0023765 137.579958,83.4272656 C136.697972,87.2006162 135.584261,91.2632571 132.521558,93.640468 C131.228217,94.655679 129.500169,95.4786288 129.162464,97.0957791 C128.767276,98.9896418 130.574361,100.599605 132.307797,101.456694 C137.396735,103.972262 143.304789,104.008198 148.871544,105.129422 C153.773666,106.117681 158.663214,107.989982 163.624614,107.350309 C165.835868,107.066409 167.950122,106.28838 170.042819,105.517538 L183.073231,100.714602 C183.441323,100.6021 183.787572,100.42771 184.097126,100.198911 C184.882112,99.5448634 184.909056,98.3014545 184.481535,97.3724915 C184.054014,96.4435285 183.27801,95.7319824 182.595413,94.9701249 C181.108071,93.3044601 179.976397,90.9524049 180.788328,88.8716715 C181.32722,87.4988906 182.61158,86.5088353 183.066045,85.0983209 C183.91031,82.4929121 181.629,80.052812 180.245843,77.6917726 C178.96629,75.5034604 178.385908,72.9762389 178.582463,70.4487361 C178.799816,67.7319236 179.91173,65.1337022 179.992564,62.4097024 C180.068009,59.8725733 179.247097,57.4037238 178.435166,54.9977636 C177.765143,53.0104656 177.082547,50.9998087 175.949077,49.2335212 C173.806083,45.8968011 169.999708,43.7998963 166.083759,43.4513106 C164.235359,43.2877987 162.43007,43.8879411 160.614004,43.6543528 C158.090192,43.3435005 155.704696,42.6894531 153.134181,42.6121892 Z" id="Path" fill="#F7D6C8" fill-rule="nonzero"></path>
                    <path d="M156.674226,113.884873 C156.674226,113.884873 141.831179,104.658126 147.603074,94.0212394 C148.938659,91.5624437 149.528844,89.2360722 149.649768,87.1119161 C149.681584,86.5522416 149.681584,85.9912346 149.649768,85.4315601 C149.649768,85.4047174 149.649768,85.3778746 149.649768,85.3510319 C149.630517,85.0623232 149.604647,84.7783866 149.57216,84.499222 C148.884514,78.8837192 145.245946,75.2241579 145.245946,75.2241579 C145.245946,75.2241579 169.865839,68.1000926 165.743573,74.5226674 C163.830437,77.5040019 164.402573,80.4280719 165.684013,83.4541444 C165.819376,83.7726783 165.963764,84.0947913 166.113566,84.4151147 C167.593539,87.6058227 169.647453,90.9110597 170.221393,94.4954613 C171.398152,101.853953 156.674226,113.884873 156.674226,113.884873 Z" id="Path" fill="#EFB7B9" fill-rule="nonzero"></path>
                    <path d="M165.650991,74.514748 C163.746496,77.4864059 164.316048,80.4009852 165.5917,83.4172358 C160.78481,86.4939913 154.718987,86.8905117 149.54723,84.4660562 C148.86808,78.861645 145.245946,75.2139617 145.245946,75.2139617 C145.245946,75.2139617 169.756435,68.1112355 165.650991,74.514748 Z" id="Path" fill="#000000" fill-rule="nonzero" opacity="0.1"></path>
                    <ellipse id="Oval" fill="#EFB7B9" fill-rule="nonzero" cx="156.793277" cy="69.1941098" rx="16.5558119" ry="16.5676037"></ellipse>
                    <path d="M149.82175,85.4317537 C149.82175,85.3899866 149.82175,85.3482195 149.82175,85.3064525 L149.852357,85.256332 C149.835662,85.3175904 149.824532,85.3760643 149.82175,85.4317537 Z" id="Path" fill="#000000" fill-rule="nonzero" opacity="0.1"></path>
                    <path d="M156.721058,113.884873 C156.721058,113.884873 141.937787,104.646081 147.686437,93.9953097 C149.016644,91.5333043 149.604452,89.203896 149.724889,87.0769671 C150.061036,89.7074066 151.881981,92.9775375 155.196713,97.503757 C156.634774,99.4747948 157.25314,102.230664 157.449076,104.984741 L157.778033,105.223058 L159.395852,104.24829 C159.57561,101.202141 160.193976,98.123738 161.657203,95.9412616 C165.50222,90.2073335 166.415389,87.3403694 166.131372,84.3694779 C167.605385,87.564351 169.651027,90.8739026 170.222656,94.4629832 C171.385688,101.838248 156.721058,113.884873 156.721058,113.884873 Z" id="Path" fill="#000000" fill-rule="nonzero" opacity="0.1"></path>
                    <path d="M180.356868,91.5458903 C171.536019,90.9079263 165.955481,84.0910308 165.955481,84.0910308 C166.425326,87.2844345 165.662053,90.142728 161.548657,96.2768588 C160.092317,98.4523875 159.474857,101.525725 159.29484,104.57935 L157.674684,105.554216 L157.345252,105.315876 C157.149033,102.563312 156.531574,99.8035808 155.089635,97.834136 C150.978039,92.2196949 149.149063,88.535274 149.626109,85.6106752 C149.626109,85.6106752 145.102273,92.92038 136.290424,93.506375 C127.478576,94.0923699 120.076263,100.291014 119.368795,111.636378 L122.187866,115.496418 L149.995144,115.496418 L149.984343,115.555556 L194.448625,115.555556 L197.278498,111.338901 C196.571029,98.9523649 189.177717,92.1838542 180.356868,91.5458903 Z" id="Path" fill="#2987CD" fill-rule="nonzero"></path>
                    <path d="M180.356868,91.5458903 C171.536019,90.9079263 165.955481,84.0910308 165.955481,84.0910308 C166.425326,87.2844345 165.662053,90.142728 161.548657,96.2768588 C160.092317,98.4523875 159.474857,101.525725 159.29484,104.57935 L157.674684,105.554216 L157.345252,105.315876 C157.149033,102.563312 156.531574,99.8035808 155.089635,97.834136 C150.978039,92.2196949 149.149063,88.535274 149.626109,85.6106752 C149.626109,85.6106752 145.102273,92.92038 136.290424,93.506375 C127.478576,94.0923699 120.076263,100.291014 119.368795,111.636378 L122.187866,115.496418 L149.995144,115.496418 L149.984343,115.555556 L194.448625,115.555556 L197.278498,111.338901 C196.571029,98.9523649 189.177717,92.1838542 180.356868,91.5458903 Z" id="Path" fill="#000000" fill-rule="nonzero" opacity="0.05"></path>
                    <path d="M167.968801,61.1846509 C167.247175,62.9519246 165.96629,64.4442891 164.566337,65.7545708 C162.632381,67.5664727 160.200503,69.1623744 157.541313,69.0392008 C158.991068,67.7028338 160.040395,65.9968174 160.573944,64.1086856 C158.896165,65.0762233 157.627908,66.6078606 156.0259,67.6985719 C154.423891,68.7892833 152.159791,69.3515977 150.593864,68.2126879 C153.438087,66.7977929 155.800793,64.5889803 157.389772,61.8594281 C153.586805,62.8358915 151.634809,67.0737782 148.208892,68.9767214 C146.603275,69.8692839 144.725245,70.2048874 142.8851,70.1656147 C141.577154,70.1388378 140.11947,69.8371517 139.390629,68.7625064 C138.96487,68.1377127 138.865646,67.3522577 138.84941,66.5971498 C138.770031,63.1732801 140.179004,59.8136749 142.349293,57.1484833 C144.519582,54.4832917 147.400671,52.4571748 150.482012,50.8844797 C151.578883,50.3239505 152.722659,49.8134047 153.94401,49.6348922 C155.463032,49.417107 157.010918,49.7366444 158.501075,50.0758181 C160.438639,50.5149589 162.387028,50.9969426 164.171247,51.8609431 C167.979625,53.7263987 169.642972,57.1074254 167.968801,61.1846509 Z" id="Path" fill="#000000" fill-rule="nonzero" opacity="0.1"></path>
                    <path d="M167.968801,60.9062038 C167.247175,62.6734775 165.96629,64.165842 164.566337,65.4761237 C162.632381,67.2880256 160.200503,68.8839273 157.541313,68.7607537 C158.991068,67.4243867 160.040395,65.7183703 160.573944,63.8302385 C158.896165,64.7977762 157.627908,66.3294135 156.0259,67.4201248 C154.423891,68.5108362 152.159791,69.0731506 150.593864,67.9342408 C153.438087,66.5193458 155.800793,64.3105332 157.389772,61.580981 C153.586805,62.5574444 151.634809,66.7953311 148.208892,68.6982743 C146.603275,69.5908368 144.725245,69.9264403 142.8851,69.8871675 C141.577154,69.8603907 140.11947,69.5587045 139.390629,68.4840593 C138.96487,67.8592656 138.865646,67.0738106 138.84941,66.3187027 C138.770031,62.894833 140.179004,59.5352278 142.349293,56.8700362 C144.519582,54.2048446 147.400671,52.1787277 150.482012,50.6060326 C151.578883,50.0455034 152.722659,49.5349576 153.94401,49.3564451 C155.463032,49.1386599 157.010918,49.4581972 158.501075,49.797371 C160.438639,50.2365117 162.387028,50.7184955 164.171247,51.582496 C167.979625,53.4443813 169.642972,56.8289783 167.968801,60.9062038 Z" id="Path" fill="#F7D6C8" fill-rule="nonzero"></path>
                    <ellipse id="Oval" fill="#C3705A" fill-rule="nonzero" cx="53.8411697" cy="61.9544846" rx="21.0077949" ry="21.0227577"></ellipse>
                    <path d="M72.622973,102.111784 C72.622973,102.111784 53.3192531,107.044597 52.8411703,107.510704 C52.3630876,107.97681 36.591768,108.802845 41.1831668,99.1711723 C42.8699872,95.6348799 43.5717766,90.831641 43.7846587,86.1687739 C43.7936792,85.9708136 43.8026996,85.7746528 43.809916,85.5784921 C44.1003738,77.7626559 43.0684366,70.510107 43.0684366,70.510107 C43.0684366,70.510107 65.4391027,61.6918714 63.7919722,75.0919902 C63.3806406,78.4249234 63.7216128,81.7740533 64.4685044,84.9234231 C64.7174683,85.9744128 65.0097302,87.0020072 65.3344657,87.9990077 C67.9467822,96.0326003 72.622973,102.111784 72.622973,102.111784 Z" id="Path" fill="#ECB4B6" fill-rule="nonzero"></path>
                    <path d="M64.5537538,84.9761466 C58.4708852,89.4835086 50.2279589,89.7453771 43.8709345,85.6332165 C44.1617331,77.7935066 43.1285855,70.5188047 43.1285855,70.5188047 C43.1285855,70.5188047 65.5254905,61.6736335 63.8764281,75.1146834 C63.4664202,78.4596022 63.8077924,81.8189621 64.5537538,84.9761466 Z" id="Path" fill="#000000" fill-rule="nonzero" opacity="0.1"></path>
                    <ellipse id="Oval" fill="#ECB4B6" fill-rule="nonzero" cx="53.7020452" cy="70.1686747" rx="18.086181" ry="18.0990629"></ellipse>
                    <path d="M72.622973,102.150975 C72.622973,102.150975 53.3192531,107.049555 52.8411703,107.512427 C52.3630876,107.975299 36.591768,108.795601 41.1831668,99.2307711 C42.8699872,95.7190201 43.5717766,90.9491151 43.7846587,86.3186078 C43.9650673,88.7384097 45.3614299,94.5984766 45.5400344,96.548258 C45.5513978,96.6622552 45.5743663,96.7748223 45.6085897,96.8842423 C45.8701821,97.7510104 46.8028946,98.7500276 47.9268401,99.6972174 L47.9935913,99.7526191 C50.8623801,102.13632 54.9583885,102.407354 58.12173,100.422801 C59.7263118,99.4213893 61.2663743,98.3219505 62.7329737,97.1308691 C64.8329298,95.4134173 65.487813,93.0990573 65.5689969,91.0545569 C65.6026065,90.0731314 65.5239283,89.0910918 65.3344657,88.1272042 C67.9467822,96.1139804 72.622973,102.150975 72.622973,102.150975 Z" id="Path" fill="#000000" fill-rule="nonzero" opacity="0.1"></path>
                    <path d="M96.8306307,115.834003 L18.36443,115.834003 C18.36443,115.834003 20.0067792,107.838561 20.2403738,106.191911 C20.3679523,105.291117 21.8575667,102.048261 24.2707779,99.2323812 C26.2796909,96.8903185 28.9300904,94.8275018 31.9686162,94.6671605 C37.6557447,94.3680971 43.813656,86.3186078 43.813656,86.3186078 L43.813656,86.3186078 C43.9502189,88.6606705 45.3913175,94.7770573 45.5728025,96.7840249 C45.5841205,96.898943 45.6069973,97.0124194 45.641084,97.1227232 C45.9016317,97.9964928 46.8306192,99.0035797 47.9500761,99.9584207 L48.0165607,100.01427 C50.873264,102.418354 54.9533081,102.692332 58.1042508,100.691666 C59.702142,99.6817462 61.2360285,98.5734449 62.6970787,97.3731438 C64.7886482,95.6418189 65.440916,93.3087642 65.5217757,91.247749 C65.5629686,89.8800857 65.3975815,88.5140431 65.0312271,87.1959805 C64.9288049,86.8212505 64.851539,86.6014569 64.8407578,86.5816394 L65.0905242,86.687933 C65.0905242,86.687933 75.7154817,94.4347558 85.4491863,97.6019453 C86.5899202,97.9743114 87.6663853,98.521246 88.640447,99.2233733 C89.4294408,99.7952528 90.1558348,100.44927 90.8074855,101.174492 C92.1250163,102.668388 93.214937,104.34944 94.0418714,106.163085 C96.2987539,110.958909 96.8306307,115.834003 96.8306307,115.834003 Z" id="Path" fill="#2987CD" fill-rule="nonzero"></path>
                    <path d="M96.8306307,115.834003 L18.36443,115.834003 C18.36443,115.834003 20.0067792,107.838561 20.2403738,106.191911 C20.3679523,105.291117 21.8575667,102.048261 24.2707779,99.2323812 C26.2796909,96.8903185 28.9300904,94.8275018 31.9686162,94.6671605 C37.6557447,94.3680971 43.813656,86.3186078 43.813656,86.3186078 L43.813656,86.3186078 C43.9502189,88.6606705 45.3913175,94.7770573 45.5728025,96.7840249 C45.5841205,96.898943 45.6069973,97.0124194 45.641084,97.1227232 C45.9016317,97.9964928 46.8306192,99.0035797 47.9500761,99.9584207 L48.0165607,100.01427 C50.873264,102.418354 54.9533081,102.692332 58.1042508,100.691666 C59.702142,99.6817462 61.2360285,98.5734449 62.6970787,97.3731438 C64.7886482,95.6418189 65.440916,93.3087642 65.5217757,91.247749 C65.5629686,89.8800857 65.3975815,88.5140431 65.0312271,87.1959805 C64.9288049,86.8212505 64.851539,86.6014569 64.8407578,86.5816394 L65.0905242,86.687933 C65.0905242,86.687933 75.7154817,94.4347558 85.4491863,97.6019453 C86.5899202,97.9743114 87.6663853,98.521246 88.640447,99.2233733 C89.4294408,99.7952528 90.1558348,100.44927 90.8074855,101.174492 C92.1250163,102.668388 93.214937,104.34944 94.0418714,106.163085 C96.2987539,110.958909 96.8306307,115.834003 96.8306307,115.834003 Z" id="Path" fill="#000000" fill-rule="nonzero" opacity="0.05"></path>
                    <path d="M62.5164991,64.0831298 C62.9833252,65.8721706 63.5937901,67.8597949 65.197158,68.7918852 C65.4120011,68.8944978 65.6099645,69.0290158 65.7842816,69.1908413 C66.1792882,69.618422 66.0589907,70.2857342 65.9997397,70.8653835 C65.7950545,72.8547968 66.6532962,74.8710458 68.0609564,76.2969113 C69.4686165,77.7227768 71.3736259,78.5940397 73.3396818,78.9947848 C73.8208717,79.0931821 74.3613127,79.1557985 74.7760697,78.8856534 C75.0563591,78.6734106 75.2624187,78.3785759 75.3649887,78.0430151 C75.9126116,76.5921031 75.680994,74.9622869 75.2231454,73.4809611 C74.7652968,71.9996353 74.0901945,70.5862931 73.7436659,69.0745536 C72.9195383,65.4875268 74.0111931,61.7806343 74.503156,58.1327801 C74.6665451,56.9198104 74.7617058,55.6692709 74.4474959,54.486715 C73.9932383,52.7728139 72.7399899,51.3988305 71.5298331,50.0981979 C70.8780721,49.3986829 70.2119472,48.6866447 69.3752513,48.2286502 C66.9082551,46.8850806 63.7320424,48.0783708 61.0980661,47.0997655 C60.0441165,46.7079656 59.1481696,45.9923492 58.1444936,45.4896288 C56.013253,44.4162043 53.4870059,44.357166 51.1510801,44.8455741 C48.8151543,45.3339822 46.6264583,46.3376341 44.4593081,47.3323408 L42.8020755,48.0801599 C40.4679452,49.1535843 37.9668349,50.366554 36.7099955,52.6118002 C35.3723593,55.0019587 35.7440246,58.0612185 34.4063884,60.451377 C34.0006088,61.1669933 33.4350311,61.853985 33.3290975,62.6769437 C33.2572781,63.2709053 33.4404176,63.8648668 33.6109886,64.4391489 C34.0275411,65.8363898 34.390229,67.2729895 34.3579103,68.7328468 C34.3255916,70.1927041 33.8587655,71.6883422 32.8209753,72.7152516 C32.382877,73.1481995 31.7975489,73.7028022 32.0668717,74.2556158 C32.1552332,74.4101706 32.2781023,74.542393 32.4259686,74.6420486 C34.1582125,75.9528463 36.4427579,76.2902827 38.482139,75.536569 C39.2685614,75.2377992 40.0118921,74.7583362 40.4571723,74.0516651 C40.7531832,73.5339845 40.9675547,72.9740331 41.092774,72.3914353 C41.6601472,70.2857342 42.2311114,68.1442524 42.1862242,65.9634117 C42.1610875,64.7110831 41.9312654,63.4480203 42.1144049,62.206426 C42.2975443,60.9648317 43.0247157,59.6856675 44.2366679,59.3439607 C45.1344104,59.0881279 46.0949948,59.3976319 47.0322378,59.3886867 C48.3824424,59.3779525 50.0378795,57.8858925 51.2893324,58.3242075 C52.3666233,58.7034841 53.2194786,60.757303 54.1100391,61.5444809 C56.368759,63.5535737 59.5216304,64.6037407 62.5164991,64.0831298 Z" id="Path" fill="#000000" fill-rule="nonzero" opacity="0.1"></path>
                    <path d="M62.5171873,63.8136279 C62.9842437,65.6026687 63.5950098,67.590293 65.1991689,68.5223833 C65.4110069,68.6228738 65.6065761,68.7543293 65.7793967,68.9123941 C66.1745983,69.3399749 66.0542414,70.0072871 65.9949612,70.5869363 C65.7901749,72.5763497 66.6488402,74.5925987 68.0571949,76.0184642 C69.4655496,77.4443297 71.3714991,78.3155926 73.3385251,78.7163377 C73.8199525,78.814735 74.3606601,78.8773514 74.7756218,78.6072062 C75.0560495,78.3949634 75.2622108,78.1001288 75.3648314,77.764568 C75.9127245,76.3136559 75.6809927,74.6838398 75.2229181,73.202514 C74.7648436,71.7211882 74.0894081,70.307846 73.7427086,68.7961065 C72.9181744,65.2090797 74.0103678,61.5021872 74.5025734,57.854333 C74.6660432,56.6413633 74.7612508,55.3908238 74.4468859,54.2082678 C73.9924041,52.4943667 72.7385373,51.1203834 71.5277833,49.8197508 C70.8757007,49.1202358 70.2092471,48.4081976 69.3721383,47.9502031 C66.9039248,46.6066335 63.7261448,47.7999237 61.0908688,46.8213184 C60.0363991,46.4295184 59.1400101,45.7139021 58.1358388,45.2111817 C56.0035466,44.1377572 53.4760529,44.0787188 51.1389744,44.567127 C48.801896,45.0555351 46.6121199,46.059187 44.4439003,47.0538937 L42.8074065,47.8052908 C40.4721244,48.8787153 37.9697799,50.091685 36.7123203,52.3369312 C35.374024,54.7270897 35.7458728,57.7863494 34.4075765,60.1765079 C34.0015967,60.8921243 33.4357399,61.5791159 33.329754,62.4020747 C33.2578992,62.9960362 33.441129,63.5899978 33.6117842,64.1642799 C34.0285423,65.5615207 34.3914092,66.9981205 34.3590745,68.4579778 C34.3267398,69.9178351 33.8596834,71.4134732 32.8213811,72.4403826 C32.3830666,72.8733305 31.7974497,73.4279331 32.0669053,73.9807467 C32.1553105,74.1353016 32.2782402,74.267524 32.4261795,74.3671795 C34.1592782,75.6779773 36.4449509,76.0154137 38.4853383,75.2616999 C39.2721487,74.9629301 40.0158463,74.4834672 40.4613462,73.7767961 C40.7575031,73.2591155 40.9719804,72.6991641 41.0972615,72.1165662 C41.6649147,70.0108652 42.2361606,67.8693834 42.1912513,65.6885426 C42.1661021,64.4362141 41.9361667,63.1731513 42.1193965,61.931557 C42.3026263,60.6899626 43.0301565,59.4107985 44.2427068,59.0690917 C45.1408922,58.8132588 46.1019506,59.1227629 47.0396562,59.1138177 C48.3905271,59.1030835 50.046781,57.6110234 51.2988514,58.0493384 C52.3766739,58.4286151 53.2299501,60.4824339 54.12095,61.2696119 C56.3664135,63.2858608 59.5208407,64.3360278 62.5171873,63.8136279 Z" id="Path" fill="#C3705A" fill-rule="nonzero"></path>
                    <rect id="Rectangle" fill="#463A3E" fill-rule="nonzero" x="81.5269391" y="71.5609103" width="41.1808429" height="35.3627845"></rect>
                    <rect id="Rectangle" fill="#000000" fill-rule="nonzero" opacity="0.05" x="81.5269391" y="71.5609103" width="41.1808429" height="35.3627845"></rect>
                    <path d="M116.864554,122.238286 L81.5269391,122.238286 C81.9830828,119.678528 83.317258,116.873017 85.9170969,113.848663 C87.9699139,111.471159 89.6488697,108.797957 90.8968159,105.920048 C91.2321627,105.151103 91.5326526,104.380365 91.7982857,103.607834 C92.5792183,101.313952 93.1105204,98.9433251 93.3830696,96.5366567 C93.3830696,96.4684921 93.399296,96.4003275 93.4065078,96.332163 C93.5887352,94.6692278 93.6622094,92.9962724 93.6264664,91.323861 C93.6264664,91.2036761 93.6264664,91.0870788 93.6264664,90.9651001 C93.5001962,86.8614035 92.8179383,82.7934241 91.5981594,78.8712707 L91.5530859,78.7313539 C91.1690598,77.5277112 90.8878012,76.8514469 90.8878012,76.8514469 C90.8878012,76.8514469 91.5891447,76.4729542 92.7466319,75.915081 L92.8439906,75.8684421 C97.1007309,73.8342679 107.17736,69.5901266 111.619803,72.6144808 L111.691921,72.6629136 C113.246055,73.7643095 114.082619,75.7859271 113.689578,79.152898 C113.689578,79.1654546 113.689578,79.179805 113.689578,79.1923617 C113.689578,79.2551448 113.675154,79.3161342 113.669745,79.3717421 C113.43177,81.6924171 113.319225,84.0241325 113.332596,86.3568166 C113.332596,86.4734138 113.332596,86.5900111 113.332596,86.7155774 C113.332596,87.2620899 113.338606,87.8157775 113.350625,88.3766403 C113.350625,88.4519801 113.350625,88.5273199 113.350625,88.6026597 C113.386684,90.4144022 113.467816,92.2853402 113.581401,94.1831853 C113.738257,96.8146964 113.961822,99.4946402 114.219642,102.124357 C114.329621,103.249073 114.448615,104.366613 114.58023,105.466215 C114.594653,105.595369 114.609077,105.728111 114.6235,105.855471 C114.774947,107.195443 114.931803,108.508507 115.092265,109.782109 L115.103082,109.864624 C115.716082,114.923152 116.393987,119.339499 116.864554,122.238286 Z" id="Path" fill="#C17174" fill-rule="nonzero"></path>
                    <path d="M113.430201,79.1712715 C113.430201,79.1838596 113.430201,79.198246 113.430201,79.2108342 C113.17699,81.6000299 113.057005,84.0014892 113.070805,86.4040453 C113.070805,86.520935 113.070805,86.6378247 113.070805,86.7637059 C108.219,92.3990965 100.291226,94.2639458 93.4387705,91.3817474 C93.4387705,91.2612611 93.4387705,91.1443715 93.4387705,91.0220869 C93.3121334,86.8587553 92.6168414,82.732342 91.3722406,78.7576619 C90.9894833,77.5510007 90.7091541,76.8730405 90.7091541,76.8730405 C90.7091541,76.8730405 91.4081803,76.4935987 92.561843,75.9343265 C96.7631882,73.9022443 107.014973,69.5143855 111.439144,72.665012 C112.986346,73.7691699 113.820146,75.7958572 113.430201,79.1712715 Z" id="Path" fill="#000000" fill-rule="nonzero" opacity="0.1"></path>
                    <ellipse id="Oval" fill="#C17174" fill-rule="nonzero" cx="100.308742" cy="75.3199465" rx="17.1123097" ry="17.124498"></ellipse>
                    <path d="M101.004365,122.238286 L64.5537538,122.238286 C64.5537538,122.238286 66.1921044,114.304158 66.4251301,112.670135 C66.5523981,111.77625 68.0383856,108.558261 70.4457213,105.763975 C73.5377703,103.303914 77.3674468,101.948688 81.3226481,101.914904 C88.2937042,101.811213 90.3228211,104.205039 90.8731205,105.974932 C91.0653622,106.568347 91.1144936,107.198631 91.016521,107.814549 L92.3358054,109.720313 L101.004365,122.238286 Z" id="Path" fill="#000000" fill-rule="nonzero" opacity="0.1"></path>
                    <path d="M101.004365,122.238286 L64.5537538,122.238286 C64.5537538,122.238286 66.1921044,114.304158 66.4251301,112.670135 C66.5523981,111.77625 68.0383856,108.558261 70.4457213,105.763975 C73.5377703,103.303914 77.3674468,101.948688 81.3226481,101.914904 C88.2937042,101.811213 90.3228211,104.205039 90.8731205,105.974932 C91.0653622,106.568347 91.1144936,107.198631 91.016521,107.814549 L92.3358054,109.720313 L101.004365,122.238286 Z" id="Path" fill="#2987CD" fill-rule="nonzero"></path>
                    <path d="M141.072212,122.238286 L102.673858,122.238286 C104.504926,118.38115 109.30427,108.097833 109.571,105.719682 C109.673727,104.799108 110.664955,103.935623 111.97698,103.202375 C112.391348,102.967535 112.81786,102.754345 113.254762,102.563682 L113.33406,102.528 C113.574358,102.423336 113.817659,102.326402 114.063964,102.237199 C117.385382,101.033564 121.034879,101.062086 124.336686,102.317481 C127.48879,103.503881 131.545614,105.102398 134.703124,106.599223 L134.728356,106.611712 C135.53936,106.997069 136.294495,107.373505 136.959519,107.735669 C138.289566,108.458213 139.260969,109.118315 139.634031,109.646397 C139.805243,109.889029 139.994477,110.982657 140.201734,112.679297 C140.477475,114.973597 140.778448,118.377582 141.072212,122.238286 Z" id="Path" fill="#000000" fill-rule="nonzero" opacity="0.1"></path>
                    <path d="M141.072212,122.238286 L102.673858,122.238286 C104.504926,118.38115 109.30427,108.097833 109.571,105.719682 C109.673727,104.799108 110.664955,103.935623 111.97698,103.202375 C112.391348,102.967535 112.81786,102.754345 113.254762,102.563682 L113.33406,102.528 C113.574358,102.423336 113.817659,102.326402 114.063964,102.237199 C117.385382,101.033564 121.034879,101.062086 124.336686,102.317481 C127.48879,103.503881 131.545614,105.102398 134.703124,106.599223 L134.728356,106.611712 C135.53936,106.997069 136.294495,107.373505 136.959519,107.735669 C138.289566,108.458213 139.260969,109.118315 139.634031,109.646397 C139.805243,109.889029 139.994477,110.982657 140.201734,112.679297 C140.479278,114.973597 140.778448,118.379366 141.072212,122.238286 Z" id="Path" fill="#2987CD" fill-rule="nonzero"></path>
                    <path d="M134.950735,103.500952 C134.950735,104.051752 134.935747,104.603149 134.905769,105.155143 C134.888982,105.423971 134.868597,105.692799 134.844616,105.961628 C134.828428,106.155184 134.808643,106.346948 134.788858,106.538712 L134.763677,106.760944 C134.470498,109.366786 133.929108,111.958291 133.864357,114.576679 C133.864357,114.70034 133.864357,114.824001 133.864357,114.947662 C133.851766,117.406545 134.251064,119.827793 134.792455,122.238286 L112.723139,122.238286 C112.687166,121.792031 112.66918,121.342192 112.674576,120.899521 C112.674576,120.499863 112.699757,120.100205 112.741125,119.698755 C113.081068,116.399335 114.773589,113.311394 115.028996,110.033481 L115.039788,109.882937 C115.055975,109.637407 115.064969,109.390085 115.061371,109.142763 C115.061371,109.121257 115.061371,109.09975 115.061371,109.076452 C115.033411,107.992658 114.865969,106.91692 114.563148,105.875603 C114.548759,105.823629 114.53437,105.771656 114.519981,105.719682 C114.211576,104.686777 113.851396,103.669927 113.440796,102.672961 L113.361656,102.474028 C112.762709,100.982927 112.133185,99.5043713 111.706907,98.0222312 C111.368052,96.9184778 111.192932,95.7712987 111.1871,94.6170724 C111.1871,94.4109707 111.199691,94.204869 111.215878,93.9987673 C111.230267,93.8303015 111.250052,93.6618358 111.275233,93.4915779 C111.31454,93.2256276 111.367368,92.9618365 111.433514,92.7012226 C111.793242,91.2889778 112.561261,89.9645503 113.296905,88.6526681 L113.296905,88.6526681 C114.115286,87.1920342 114.895896,85.74753 115.03619,84.2116242 C115.053919,84.0174056 115.060525,83.8223382 115.055975,83.6273706 L115.055975,83.6273706 C115.050377,83.3762439 115.026331,83.1258627 114.98403,82.8782357 C114.795172,81.7885849 114.232198,80.8082576 113.769948,79.8028397 C113.723183,79.7006849 113.676418,79.5985301 113.631452,79.4945832 C113.631452,79.4784535 113.617063,79.4623238 113.611667,79.4461941 C112.712347,77.376216 112.190741,75.1682394 111.642156,72.9710159 C111.618774,72.8760299 111.595391,72.7810439 111.57021,72.6878501 C111.435312,72.1501934 111.296817,71.6125368 111.149329,71.0748801 C110.343538,68.1428592 109.196005,65.1803711 107.012456,63.0637961 C104.828907,60.9472211 101.346739,59.8754922 98.612806,61.2232182 C96.247594,62.3971019 94.9669621,65.0244507 94.3895986,67.5908651 C93.8122351,70.1572795 93.7654704,72.8366017 93.0154374,75.3600036 C92.9614782,75.5440016 92.9015236,75.7274023 92.8355734,75.9102056 C92.8031979,76.0033994 92.7708224,76.0894244 92.7384468,76.1915792 C92.4164902,77.1055955 92.0189907,78.0106509 91.5909143,78.9103296 L91.5459483,79.0053156 C90.1789817,81.903285 88.5907824,84.751073 88.5404204,87.6633798 L88.5404204,87.7010158 C88.5404204,87.7798721 88.5404204,87.8569362 88.5404204,87.9357925 C88.5497597,88.6279401 88.6550777,89.315479 88.8533839,89.9788878 C89.2131119,91.1724855 89.8642197,92.2137472 90.6232459,93.2048276 C90.7731326,93.3995788 90.9266165,93.5925378 91.0836978,93.7837046 C91.8391267,94.7084741 92.6593067,95.6045685 93.3769641,96.5580129 L93.4003465,96.5884801 C93.9460564,97.2926766 94.4066798,98.0584308 94.772709,98.8699365 C95.6491959,100.923196 95.6621551,103.241031 94.8086818,105.303894 C94.6049768,105.775852 94.3712791,106.234387 94.1090107,106.676711 C93.6467602,107.472443 93.137745,108.246668 92.7366482,109.07466 C92.6017502,109.352449 92.4812413,109.635615 92.3769201,109.922365 C91.4776,112.230704 91.2833469,114.784573 90.5495016,117.166392 C89.9811369,118.9951 89.0967174,120.710894 87.9360773,122.236494 L64.5537538,122.236494 C64.8253485,120.912067 66.17253,114.350863 66.3847696,112.877684 C66.5124731,111.98159 68.0035458,108.75565 70.4191197,105.954459 C70.2158734,106.113964 70.0198216,106.275261 69.8309644,106.436558 C68.3076584,107.730067 66.9877525,109.243994 65.9153245,110.927783 C65.9674851,110.766486 66.0214443,110.603397 66.0754035,110.4421 C66.4045546,109.463565 66.7606854,108.49399 67.1222121,107.536962 C68.1690207,104.780575 69.3345396,101.968631 71.4209624,99.8789388 C72.5990717,98.6996786 74.032588,97.7910388 75.1549396,96.5598051 C77.1334439,94.3930488 77.9518252,91.3911326 77.9284429,88.4483585 C77.9284429,88.1436864 77.9158524,87.8408065 77.8960673,87.5379266 C77.6820291,84.3119867 76.5758654,81.2240454 75.3779709,78.2185448 C74.7340577,76.6055748 74.0505744,74.9101642 74.0811513,73.2004161 C74.0830959,72.9605904 74.1005187,72.7211377 74.1333119,72.4835405 C74.627938,68.9403833 78.2252185,66.8184317 80.3853855,63.9598905 C83.597757,59.7070265 83.8315802,53.3859765 88.0457944,50.1206085 C91.2833469,47.6115441 95.7799475,47.7656724 99.8682569,48.0380851 C103.670582,48.2925759 107.102388,48.7854278 110.875935,49.3123313 C114.649483,49.8392348 118.478788,50.8285231 121.505899,53.1458232 C123.461021,54.6405087 124.986268,56.6208773 126.340644,58.6729335 C128.153674,61.4221512 129.738276,64.458119 129.955911,67.7396167 C129.972099,67.9743935 129.981092,68.207378 129.981092,68.4385704 C130.018864,72.2738545 128.347927,75.9908541 128.126694,79.8422678 C128.117701,80.0214867 128.110506,80.2007056 128.108708,80.3799245 C128.107575,80.3894495 128.107575,80.3990745 128.108708,80.4085995 C128.069138,83.7474473 129.355165,87.2529686 131.105242,90.0864191 C133.591658,94.1244637 134.921528,98.7635534 134.950735,103.500952 L134.950735,103.500952 Z" id="Path" fill="#000000" fill-rule="nonzero" opacity="0.1"></path>
                    <path d="M134.950592,103.489521 C134.950592,103.962993 134.932619,104.438258 134.90566,104.909937 C134.888886,105.178955 134.868517,105.447973 134.844554,105.716991 C134.82059,105.986009 134.793631,106.252636 134.763677,106.516871 C134.470724,109.124553 133.929749,111.717887 133.865048,114.338123 C133.865048,114.53899 133.865048,114.74165 133.865048,114.942517 C133.877628,117.401342 134.294592,119.826091 134.844554,122.238286 L112.759835,122.238286 C112.718498,121.791717 112.693336,121.34156 112.689742,120.898577 C112.685036,120.419458 112.707237,119.940453 112.75624,119.463814 C113.095922,116.162065 114.787143,113.071945 115.042354,109.791718 C115.060326,109.551395 115.072907,109.311072 115.074705,109.074336 C115.074705,109.018739 115.074705,108.961349 115.074705,108.905752 C115.051724,107.744916 114.870947,106.592564 114.537324,105.480255 C114.229157,104.446621 113.869253,103.429053 113.458969,102.431384 C112.837117,100.872872 112.170334,99.3251218 111.724614,97.7684039 C111.410531,96.736241 111.235854,95.6668758 111.205206,94.5886105 C111.200165,94.3037458 111.209763,94.0188105 111.233962,93.7349265 C111.24834,93.5663419 111.26811,93.3977572 111.293272,93.2273791 C111.332548,92.9612411 111.385336,92.6972639 111.45143,92.436466 C111.810882,91.0232245 112.578312,89.6978622 113.313391,88.3850541 C114.132941,86.9215958 114.916546,85.4724852 115.054935,83.9337019 C115.065718,83.8171275 115.07111,83.6987595 115.074705,83.5750112 L115.074705,83.5750112 C115.083207,83.2452496 115.059127,82.9154543 115.002814,82.5904051 C114.814102,81.4999852 114.25156,80.5189661 113.789664,79.5128385 C113.742936,79.4106117 113.696207,79.3083848 113.651275,79.2043645 C112.740065,77.1203713 112.213468,74.9000756 111.663507,72.6761929 C111.505348,72.0413103 111.343595,71.4064277 111.172855,70.7769255 C110.367683,67.8428352 109.221032,64.8782562 107.03916,62.7601873 C104.857287,60.6421185 101.383185,59.5911546 98.653149,60.9470056 C96.2897534,62.1217178 95.010105,64.750921 94.4331848,67.3191467 C93.8562647,69.8873724 93.809536,72.5685857 93.060079,75.0937686 C92.977405,75.3717539 92.8803531,75.6497392 92.7886928,75.9259311 C92.4544027,76.8710812 92.0374386,77.8090575 91.5989074,78.7416534 C90.1952481,81.7169931 88.5615397,84.6439096 88.5956876,87.6407708 L88.5956876,87.6784333 C88.6050197,88.3710694 88.7102567,89.0590936 88.9084106,89.7229705 C89.2678624,90.9174107 89.9184702,91.9594073 90.6769135,92.9511872 C90.8266851,93.1460759 90.9800512,93.3391711 91.1370118,93.5304728 C91.9008469,94.4666556 92.7293833,95.3723498 93.4518814,96.3372279 C93.9971723,97.0419214 94.457442,97.808216 94.82319,98.6202945 C95.6990038,100.675003 95.7119531,102.994474 94.8591352,105.058793 C94.6555867,105.531084 94.4220684,105.989943 94.1600015,106.432579 C93.6981059,107.228872 93.1894816,108.003644 92.7886928,108.83222 C92.6538984,109.110205 92.5334821,109.393571 92.429241,109.680524 C91.5306115,111.990492 91.3365076,114.546163 90.6032259,116.929663 C90.0053003,118.853804 89.0593163,120.652413 87.8120826,122.236493 L64.5537538,122.236493 C64.5537538,122.236493 66.1964485,114.277145 66.4300922,112.637929 C66.546914,111.81832 67.8067926,109.051021 69.8736405,106.427198 C70.0533664,106.186876 70.2582539,105.946553 70.4613442,105.709817 C68.771257,107.042772 67.3064452,108.637695 66.1227609,110.433774 L65.9628049,110.684858 C66.3366347,109.538841 66.7482071,108.407171 67.1705629,107.291643 C68.2165677,104.533311 69.3811915,101.719382 71.466012,99.6282154 C72.6432166,98.4481229 74.075632,97.5388419 75.1971217,96.3067392 C77.1165943,94.1958441 77.9469279,91.2850687 77.9684951,88.4155428 C77.9684951,88.0317437 77.9684951,87.649738 77.9361444,87.2695259 C77.7222706,84.0413092 76.6169563,80.9511884 75.4199818,77.9435665 C74.8071165,76.3976094 74.1619005,74.787088 74.124158,73.1478713 C74.1158162,72.8319321 74.1332472,72.5158394 74.1762785,72.2027212 C74.672322,68.6767912 78.26684,66.5623092 80.4253481,63.6927833 C83.6352527,59.4369176 83.8688964,53.1114063 88.0798742,49.8437336 C91.3149405,47.3328984 95.808088,47.4871355 99.8932577,47.7597404 C103.692663,48.0144109 107.121833,48.5076106 110.892483,49.034886 C114.663132,49.5621614 118.494888,50.5503544 121.516081,52.8621163 C123.469701,54.3668239 124.993777,56.339623 126.347113,58.394921 C128.15875,61.146079 129.742135,64.1841896 129.959604,67.4680033 C129.981171,67.7800643 129.989558,68.0915274 129.984765,68.4023927 C129.954212,72.1560914 128.347462,75.8039762 128.131791,79.5809898 C128.117413,79.8356602 128.110224,80.0885372 128.113819,80.3450011 C128.112687,80.3545328 128.112687,80.3641646 128.113819,80.3736963 C128.135386,83.6449559 129.400656,87.0561049 131.108052,89.819817 C133.636089,93.9319266 134.966635,98.6652988 134.950592,103.489521 L134.950592,103.489521 Z" id="Path" fill="#463A3E" fill-rule="nonzero"></path>
                </g>
            </g>
        </g>
    </g>
</svg>