<?xml version="1.0" encoding="UTF-8"?>
<svg width="464px" height="373px" viewBox="0 0 464 373" version="1.1" xmlns="http://www.w3.org/2000/svg" xmlns:xlink="http://www.w3.org/1999/xlink">
    <!-- Generator: Sketch 54.1 (76490) - https://sketchapp.com -->
    <title>undraw_envelope_n8lc</title>
    <desc>Created with Sketch.</desc>
    <g id="JOGL---Platform-MVP" stroke="none" stroke-width="1" fill="none" fill-rule="evenodd">
        <g id="2.6_JOGL_Sign_Up_Check_Email" transform="translate(-773.000000, -443.000000)">
            <g id="undraw_envelope_n8lc" transform="translate(773.000000, 443.000000)">
                <path d="M269.593949,42.702022 C239.845913,41.8441715 211.514664,33.8315775 184.479147,25.0644344 C157.443631,16.2972912 130.605388,6.60043565 101.570229,1.95636494 C82.8964431,-1.03039233 61.5415231,-1.45258058 46.4948905,6.89686569 C32.0131791,14.9319165 27.3368865,28.8057408 24.8216419,41.6824823 C22.9251206,51.3658638 21.8132121,61.5612608 27.0006239,70.624834 C30.5874255,76.9127441 36.9943498,82.2080626 41.4150828,88.2354735 C56.7934945,109.214636 45.9254857,135.080403 29.2558254,155.561025 C21.4365979,165.168053 12.3664734,174.334928 6.33167976,184.561764 C0.296886094,194.788601 -2.48288513,206.515553 2.78522969,216.935518 C8.0174765,227.265656 20.4860955,235.040208 33.994887,240.506198 C61.4294356,251.599868 93.7599684,254.775262 125.283471,256.5763 C195.064696,260.555648 265.222535,258.821982 335.192067,257.106281 C361.08429,256.468507 387.093085,255.82175 412.568344,252.480175 C426.713792,250.625242 441.316558,247.683398 451.574811,240.57806 C464.612835,231.5594 467.840956,216.28427 459.107094,204.975015 C444.45501,186.003492 403.96002,181.292051 393.697284,160.932696 C388.057038,149.726742 393.849723,137.24075 402.041081,126.847733 C419.616409,104.5526 449.0775,84.9927085 450.628792,59.5087073 C451.691382,41.9923865 437.532483,24.4760656 415.635059,16.1939898 C392.684012,7.5121826 360.855632,8.60358413 343.899027,22.97595 C326.498556,37.770504 295.858304,43.4790281 269.593949,42.702022 Z" id="Path" fill="#2987CD" fill-rule="nonzero" opacity="0.1"></path>
                <ellipse id="Oval" fill="#2987CD" fill-rule="nonzero" opacity="0.1" cx="194.5" cy="360" rx="130.5" ry="13"></ellipse>
                <path d="M338.57801,266 C338.57801,266 323.913221,280.451128 332.191731,301.894737 C340.47024,323.338346 318,359 318,359 C318,359 318.236529,358.965038 318.688299,358.88812 C348.807882,353.648421 363.773062,319.702256 347.024455,294.485038 C340.806111,285.110451 335.685262,274.111278 338.57801,266 Z" id="Path" fill="#2987CD" fill-rule="nonzero"></path>
                <path d="M337.600763,266 C337.600763,266 329.3131,283.714286 337.600763,298.165414 C345.888426,312.616541 339.021505,353.172932 317,359" id="Path" stroke="#535461" stroke-width="2"></path>
                <path d="M363,324.176491 C363,324.176491 346.407598,321.610202 344.894934,336.049274 C343.38227,350.488345 313,352.487636 313,352.487636 C313,352.487636 313.196998,352.619708 313.569887,352.856526 C338.663696,368.850854 362.652908,363.044257 359.038931,341.805774 C357.685741,333.91108 357.793621,325.979951 363,324.176491 Z" id="Path" fill="#2987CD" fill-rule="nonzero"></path>
                <path d="M363,324.176491 C363,324.176491 346.407598,321.610202 344.894934,336.049274 C343.38227,350.488345 313,352.487636 313,352.487636 C313,352.487636 313.196998,352.619708 313.569887,352.856526 C338.663696,368.850854 362.652908,363.044257 359.038931,341.805774 C357.685741,333.91108 357.793621,325.979951 363,324.176491 Z" id="Path" fill="#F5F5F5" fill-rule="nonzero" opacity="0.2"></path>
                <path d="M363,325 C363,325 350.122491,327.724734 351.179985,339.007754 C352.237479,350.290775 332.048959,363.810517 313,353.085547" id="Path" stroke="#535461" stroke-width="2"></path>
                <path d="M77,359 C77,359 71.2544307,326.206439 49.9290155,309.955478 C40.9810708,303.135638 34.4337942,293.861552 31.5743713,283.299773 C30.2286928,278.295364 29.3665569,273.171594 29,268" id="Path" stroke="#535461" stroke-width="2"></path>
                <path d="M13.6988008,256.758889 C15.3592201,260.475861 26.4549722,268 26.4549722,268 C26.4549722,268 27.8497244,253.943865 26.1768519,250.222146 C24.5039795,246.500427 20.3653843,244.948128 16.9117122,246.752022 C13.45804,248.555917 12.0259284,253.03717 13.6988008,256.758889 Z" id="Path" fill="#2987CD" fill-rule="nonzero"></path>
                <path d="M12.7208056,281.272483 C16.3822061,283.16395 31,282.996192 31,282.996192 C31,282.996192 24.4048444,271.848703 20.757348,269.957237 C17.1098515,268.065771 12.3407615,269.063928 10.1253824,272.188412 C7.91000341,275.312897 9.06403977,279.381017 12.7208056,281.272483 Z" id="Path" fill="#2987CD" fill-rule="nonzero"></path>
                <path d="M31.1950029,313.999662 C35.2171413,314.053223 47,307.716562 47,307.716562 C47,307.716562 35.4439864,301.058536 31.4174856,301.000855 C27.3909849,300.943174 24.0799187,303.81074 24.0013954,307.399317 C23.9228721,310.987894 27.1685022,313.933741 31.1950029,313.999662 Z" id="Path" fill="#2987CD" fill-rule="nonzero"></path>
                <path d="M50.0171278,335.932674 C54.0198547,336.598383 67,332.107949 67,332.107949 C67,332.107949 56.7413556,323.763845 52.7430467,323.110541 C48.7447378,322.457236 44.8789696,324.764476 44.127906,328.320437 C43.3768425,331.876398 46.0099829,335.2711 50.0171278,335.932674 Z" id="Path" fill="#2987CD" fill-rule="nonzero"></path>
                <path d="M44.5771227,277.757144 C43.2523738,281.533754 32.8015768,290 32.8015768,290 C32.8015768,290 30.0343235,276.572054 31.3590724,272.795444 C32.6838213,269.018834 36.7169458,267.068277 40.3631595,268.437817 C44.0093732,269.807357 45.9018717,273.985145 44.5771227,277.757144 Z" id="Path" fill="#2987CD" fill-rule="nonzero"></path>
                <path d="M67.3963136,304.26221 C64.7818672,307.33868 51,312 51,312 C51,312 52.4005963,298.837322 54.996368,295.76529 C57.7158658,292.674081 62.4792622,292.09388 65.9303562,294.433484 C67.5635169,295.503665 68.6511438,297.174917 68.9296517,299.042214 C69.2081597,300.909511 68.6521291,302.802425 67.3963136,304.26221 L67.3963136,304.26221 Z" id="Path" fill="#2987CD" fill-rule="nonzero"></path>
                <path d="M85.2164152,332.074886 C83.4572554,335.777339 72.273438,343 72.273438,343 C72.273438,343 71.2911034,328.760903 73.0502632,325.05845 C74.809423,321.355997 78.9566012,319.926812 82.3187337,321.864365 C85.6808663,323.801918 86.9714648,328.372433 85.2164152,332.074886 Z" id="Path" fill="#2987CD" fill-rule="nonzero"></path>
                <path d="M13.6988008,256.758889 C15.3592201,260.475861 26.4549722,268 26.4549722,268 C26.4549722,268 27.8497244,253.943865 26.1768519,250.222146 C24.5039795,246.500427 20.3653843,244.948128 16.9117122,246.752022 C13.45804,248.555917 12.0259284,253.03717 13.6988008,256.758889 Z" id="Path" fill="#000000" fill-rule="nonzero" opacity="0.25"></path>
                <path d="M12.7208056,281.272483 C16.3822061,283.16395 31,282.996192 31,282.996192 C31,282.996192 24.4048444,271.848703 20.757348,269.957237 C17.1098515,268.065771 12.3407615,269.063928 10.1253824,272.188412 C7.91000341,275.312897 9.06403977,279.381017 12.7208056,281.272483 Z" id="Path" fill="#000000" fill-rule="nonzero" opacity="0.25"></path>
                <path d="M31.1950029,313.999662 C35.2171413,314.053223 47,307.716562 47,307.716562 C47,307.716562 35.4439864,301.058536 31.4174856,301.000855 C27.3909849,300.943174 24.0799187,303.81074 24.0013954,307.399317 C23.9228721,310.987894 27.1685022,313.933741 31.1950029,313.999662 Z" id="Path" fill="#000000" fill-rule="nonzero" opacity="0.25"></path>
                <path d="M50.0171278,335.932674 C54.0198547,336.598383 67,332.107949 67,332.107949 C67,332.107949 56.7413556,323.763845 52.7430467,323.110541 C48.7447378,322.457236 44.8789696,324.764476 44.127906,328.320437 C43.3768425,331.876398 46.0099829,335.2711 50.0171278,335.932674 Z" id="Path" fill="#000000" fill-rule="nonzero" opacity="0.25"></path>
                <path d="M44.5771227,277.757144 C43.2523738,281.533754 32.8015768,290 32.8015768,290 C32.8015768,290 30.0343235,276.572054 31.3590724,272.795444 C32.6838213,269.018834 36.7169458,267.068277 40.3631595,268.437817 C44.0093732,269.807357 45.9018717,273.985145 44.5771227,277.757144 Z" id="Path" fill="#000000" fill-rule="nonzero" opacity="0.25"></path>
                <path d="M67.3963136,304.26221 C64.7818672,307.33868 51,312 51,312 C51,312 52.4005963,298.837322 54.996368,295.76529 C57.7158658,292.674081 62.4792622,292.09388 65.9303562,294.433484 C67.5635169,295.503665 68.6511438,297.174917 68.9296517,299.042214 C69.2081597,300.909511 68.6521291,302.802425 67.3963136,304.26221 L67.3963136,304.26221 Z" id="Path" fill="#000000" fill-rule="nonzero" opacity="0.25"></path>
                <path d="M85.2164152,332.074886 C83.4572554,335.777339 72.273438,343 72.273438,343 C72.273438,343 71.2911034,328.760903 73.0502632,325.05845 C74.809423,321.355997 78.9566012,319.926812 82.3187337,321.864365 C85.6808663,323.801918 86.9714648,328.372433 85.2164152,332.074886 Z" id="Path" fill="#000000" fill-rule="nonzero" opacity="0.25"></path>
                <path d="M75.0360308,358 C75.0360308,358 83.8148519,325.70705 71.155765,302.558369 C65.844511,292.847084 63.7944746,281.812759 65.6964777,271.021442 C66.6095806,265.890589 68.0141842,260.86012 69.8907535,256" id="Path" stroke="#535461" stroke-width="2"></path>
                <path d="M62.0045522,240.547817 C62.1386612,244.571582 69.5188468,256 69.5188468,256 C69.5188468,256 76.1320965,244.07208 75.9979875,240.04369 C75.8638786,236.0153 72.6243082,232.865663 68.7602928,233.004414 C64.8962774,233.143164 61.8662523,236.519427 62.0045522,240.547817 Z" id="Path" fill="#2987CD" fill-rule="nonzero"></path>
                <path d="M51.363814,262.367 C53.772188,265.638742 67,271 67,271 C67,271 66.2701897,257.372324 63.8618156,254.096 C61.335257,250.804392 56.7111956,250.023517 53.2521982,252.304332 C51.613791,253.338057 50.478726,255.011352 50.1202941,256.921334 C49.7618623,258.831316 50.212539,260.804935 51.363814,262.367 Z" id="Path" fill="#2987CD" fill-rule="nonzero"></path>
                <path d="M52.3228065,300.342097 C56.0560445,301.838943 70,300.31339 70,300.31339 C70,300.31339 62.2974124,290.093823 58.5641745,288.596976 C54.8309366,287.100129 50.4116382,288.514957 48.6875773,291.758808 C46.9635163,295.00266 48.5940236,298.84525 52.3228065,300.342097 Z" id="Path" fill="#2987CD" fill-rule="nonzero"></path>
                <path d="M60.4389109,328.146955 C64.0495931,330.402002 79,331 79,331 C79,331 73.0312244,318.533336 69.4252868,316.282854 C65.8205753,314.023692 61.0151922,314.819783 58.403454,318.108803 C57.2074764,319.674447 56.7470511,321.650172 57.1337477,323.557223 C57.5204443,325.464273 58.718974,327.128618 60.4389109,328.146955 L60.4389109,328.146955 Z" id="Path" fill="#2987CD" fill-rule="nonzero"></path>
                <path d="M81.8791828,270.934933 C78.9595404,273.741759 65,277 65,277 C65,277 67.9606999,263.971504 70.8757804,261.164678 C73.8672623,258.355825 78.5595083,258.270225 81.6556477,260.968022 C83.1063161,262.220052 83.9558587,264.009821 83.9983285,265.903451 C84.0407983,267.797081 83.2723178,269.621682 81.8791828,270.934933 Z" id="Path" fill="#2987CD" fill-rule="nonzero"></path>
                <path d="M91.0411028,304.77529 C87.3535707,306.58413 73,305.85455 73,305.85455 C73,305.85455 80.0332041,294.630243 83.7207362,292.834354 C87.4082683,291.038465 92.0393347,292.234286 94.058589,295.532505 C96.0778433,298.830724 94.7468675,302.966449 91.0411028,304.77529 Z" id="Path" fill="#2987CD" fill-rule="nonzero"></path>
                <path d="M94.9082418,336.956506 C91.3638656,339.452604 76,341 76,341 C76,341 81.1768481,328.072793 84.7212243,325.576695 C88.2945037,323.085667 93.3065443,323.597234 96.2269654,326.751058 C97.5730264,328.238572 98.1961392,330.18684 97.9456985,332.124971 C97.6952578,334.063103 96.5940524,335.814736 94.9082418,336.956506 Z" id="Path" fill="#2987CD" fill-rule="nonzero"></path>
                <ellipse id="Oval" fill="#E6E8EC" fill-rule="nonzero" cx="310" cy="151" rx="1" ry="1"></ellipse>
                <path d="M224.558075,96.5415107 L107,172.51964 L183.717759,310.360428 C184.442478,311.663549 185.681254,312.605335 187.13423,312.957818 L256.645932,329.849808 C259.100349,330.441221 261.636155,329.245306 262.732645,326.979245 L297.212031,255.6182 L335,205.296012 L245.326623,99.6091176 C240.164073,93.5275976 231.269865,92.2138836 224.558075,96.5415107 Z" id="Path" fill="#DCDFED" fill-rule="nonzero"></path>
                <path d="M336,206.294438 L335.66735,206.742231 L313.53265,236.220398 L313.132571,236.753271 L298.212776,256.621815 L268.723817,317.660384 L267.896688,319.366472 L263.734069,327.977518 C262.636821,330.24737 260.095743,331.443938 257.638486,330.847867 L188.128155,313.948186 C186.674722,313.596742 185.435603,312.654747 184.711751,311.35099 L178.027287,299.36359 L176.82705,297.205231 L128.579338,210.485774 L128.165773,209.746917 L108,173.52052 L110.436435,171.944291 L128.907492,160.010626 L129.334543,159.732995 L168.232098,134.593935 L170.686514,133.00875 L225.551262,97.5480779 C232.26328,93.2122949 241.164713,94.5245163 246.328391,100.610977 L287.235331,148.838208 L289.033438,150.987611 L318.724685,185.978102 L318.886514,186.170652 L333.8153,203.759934 L335.694322,205.976506 L336,206.294438 Z" id="Path" fill="#000000" fill-rule="nonzero" opacity="0.1"></path>
                <path d="M318,183.563975 L314.385905,208.830002 L313.296295,216.454927 L312.673021,232.697373 L312.623697,233.965186 L309.381773,318.831963 C309.318574,320.425876 308.555999,321.909479 307.299765,322.882541 C306.043531,323.855603 304.42306,324.217877 302.875505,323.871633 L267.927294,316.021118 L267.550639,315.935394 L177.92018,295.808297 L176.274556,295.43833 L127,284.366396 L128.129965,208.062997 L128.165837,205.513836 L128.50662,182.417981 L128.883275,156.926365 L167.683233,131.597174 L170.131491,130 C206.119988,133.713203 253.982088,140.855368 286.405813,145.949179 L288.199408,148.114838 L317.793737,183.369969 L318,183.563975 Z" id="Path" fill="#000000" fill-rule="nonzero" opacity="0.1"></path>
                <path d="M322,153.222718 L317.734734,182.927603 L313.824532,210.130077 L312.732372,217.718325 L312.107638,233.92099 L308.808686,319.844621 C308.74534,321.43463 307.980979,322.914599 306.721805,323.885278 C305.462631,324.855957 303.838366,325.217344 302.287188,324.871947 L266.879635,316.955145 L177.039373,296.877343 L126,285.463466 L127.168566,206.80403 L127.510147,183.764741 L127.910156,156.814309 L128.319154,129.09425 C136.759797,128.693684 150.647756,129.598333 167.227912,131.268107 C204.352358,134.999221 254.96026,142.546962 288.04866,147.745317 C308.309798,150.927341 322,153.222718 322,153.222718 Z" id="Path" fill="#2987CD" fill-rule="nonzero"></path>
                <path d="M332.135892,202.806875 L313.194579,212.087052 L216.525327,259.450421 L127.437976,185.893944 L109.428718,171 L107,172.575795 L127.101899,208.792209 L125.936831,287.031302 L176.823404,298.384185 L183.473252,310.368282 C184.194811,311.671679 185.430006,312.613415 186.878835,312.964762 L256.168996,329.850832 C258.614151,330.439692 261.139225,329.244566 262.231829,326.981275 L266.381263,318.372602 L301.682814,326.247098 C303.229348,326.590648 304.84875,326.231193 306.104154,325.265701 C307.359559,324.300209 308.121631,322.828149 308.184788,321.246636 L311.473864,235.782166 L333.937266,205.78835 L334,205.03179 L332.135892,202.806875 Z" id="Path" fill="#000000" fill-rule="nonzero" opacity="0.1"></path>
                <path d="M106.023755,172 L98.0092109,309.117986 C97.8560313,311.739329 99.628572,314.084676 102.194035,314.655158 L315.040187,361.876054 C316.550053,362.206384 318.129149,361.869198 319.37194,360.95109 C320.614732,360.032982 321.400132,358.623405 321.526439,357.084357 L334,204.868259 L215.894479,262.741363 L106.023755,172 Z" id="Path" fill="#DCDFED" fill-rule="nonzero"></path>
                <path d="M100.440817,312.142758 L210.683499,244.172652 C214.053729,242.130181 218.406196,242.810994 220.990741,245.78491 L319.662423,360.788161 C320.020936,361.200182 320.195711,360.904602 319.662423,360.788161 L100.440817,312.142758 C99.8134195,312.003924 99.8940848,312.469688 100.440817,312.142758 Z" id="Path" fill="#000000" fill-rule="nonzero" opacity="0.1"></path>
                <path d="M102.572984,310.942526 L211.86486,245.228795 C215.431764,243.084466 220.031358,243.804754 222.76442,246.935645 L320.712315,359.05604 C321.044855,359.438721 321.093972,359.990301 320.834236,360.425231 C320.574501,360.860161 320.064232,361.080788 319.567592,360.972896 L102.927624,313.091727 C102.455555,312.990129 102.093874,312.611606 102.015598,312.137234 C101.937322,311.662861 102.158364,311.189077 102.572984,310.942526 L102.572984,310.942526 Z" id="Path" fill="#E3E5F1" fill-rule="nonzero"></path>
            </g>
        </g>
    </g>
</svg>