<svg width="300" height="94" viewBox="0 0 300 94" fill="none" xmlns="http://www.w3.org/2000/svg">
<path d="M0 12C0 5.3726 5.37258 0 12 0H288C294.627 0 300 5.37258 300 12V93.504L274.762 86.5534C190.639 63.3861 101.74 63.9906 17.94 88.2999L0 93.504V12Z" fill="#C7DAF5" fill-opacity="0.5"/>
</svg>
