<svg width="64" height="151" viewBox="0 0 64 151" fill="none" xmlns="http://www.w3.org/2000/svg">
<path d="M12 151C5.37258 151 -1.55525e-07 145.627 -3.47375e-07 139L-4.02376e-06 12C-4.21561e-06 5.37259 5.37258 -3.54613e-07 12 -7.9205e-07L64 -4.22427e-06L62.716 3.4284C44.8692 51.0832 45.3267 103.663 64 151L12 151Z" fill="#C7DAF5" fill-opacity="0.5"/>
</svg>
